module gitlab.com/kaioaresi/golang-challenger/dadjoke

go 1.17

require (
	github.com/inconshreveable/mousetrap v1.0.0 // indirect
	github.com/spf13/cobra v1.4.0 // indirect
	github.com/spf13/pflag v1.0.5 // indirect
)
